Times from every process: 
0.023273 0.000874043 0.00049305 0.0246401
Times from every process: 
0.0198169 0.000855923 5.00679e-06 0.0206778
Times from every process: 
0.0203681 0.000832796 5.00679e-06 0.0212059
Times from every process: 
0.0118148 0.000531197 4.05312e-06 0.0123501
Times from every process: 
0.012358 0.000828028 5.96046e-06 0.0131919
Times from every process: 
0.0122609 0.000822067 5.00679e-06 0.013088

Total timings: 
readData: 0.0998917
processData: 0.00474405
reduceResults: 0.000518084
total: 0.0175256
